[
{
    "model": "transactions.exchange",
    "pk": 1,
    "fields": {
        "title": "Binance"
    }
},
{
    "model": "transactions.exchange",
    "pk": 2,
    "fields": {
        "title": "Kraken"
    }
},
{
    "model": "transactions.exchange",
    "pk": 3,
    "fields": {
        "title": "Coinbase"
    }
},
{
    "model": "transactions.exchange",
    "pk": 4,
    "fields": {
        "title": "Revolut"
    }
},
{
    "model": "transactions.exchange",
    "pk": 5,
    "fields": {
        "title": "Coinmate"
    }
},
{
    "model": "transactions.exchange",
    "pk": 6,
    "fields": {
        "title": "MetaMask"
    }
},
{
    "model": "transactions.exchange",
    "pk": 7,
    "fields": {
        "title": "Uniswap"
    }
},
{
    "model": "transactions.exchange",
    "pk": 8,
    "fields": {
        "title": "Crypto.com"
    }
}
]
